{
  "Entries": [
    {
      "RelativePath": "#Credit.txt",
      "Size": 2105,
      "LastWriting": "2021-12-22T00:04:39.4546585Z",
      "Hash": "8GakLJSGruRU+eI/Q+qor+iwj8U",
      "Attributes": 32
    },
    {
      "RelativePath": "#License.txt",
      "Size": 1716,
      "LastWriting": "2021-12-21T23:40:44.6344428Z",
      "Hash": "1J8eDRhDq3lnihUBfb0lHapqo9s",
      "Attributes": 32
    },
    {
      "RelativePath": "baselib.dll",
      "Size": 385536,
      "LastWriting": "2020-11-18T21:58:58Z",
      "Hash": "Z4ALE66InW+FlWHJe/6gC0l+lxU",
      "Attributes": 8224
    },
    {
      "RelativePath": "GameAssembly.dll",
      "Size": 25167360,
      "LastWriting": "2021-12-22T04:38:56.5236451Z",
      "Hash": "iyMb96fXXKzOrxSS9X1wZMcy3OI",
      "Attributes": 8224
    },
    {
      "RelativePath": "UnityCrashHandler32.exe",
      "Size": 1057792,
      "LastWriting": "2020-11-18T21:53:36Z",
      "Hash": "mnNFNApAW1WgbyId/O6d5u6ihuI",
      "Attributes": 8224
    },
    {
      "RelativePath": "UnityPlayer.dll",
      "Size": 21387776,
      "LastWriting": "2020-11-18T21:59:52Z",
      "Hash": "e+nTK2prfS0mUVXMOr0+UXJTTc0",
      "Attributes": 8224
    },
    {
      "RelativePath": "けもフレスーパーパーティー.exe",
      "Size": 639488,
      "LastWriting": "2021-12-22T04:37:54.9461978Z",
      "Hash": "bQwNXdf5QFqiWchtZID6/rTbBVU",
      "Attributes": 8224
    },
    {
      "RelativePath": "注意事項.txt",
      "Size": 369,
      "LastWriting": "2020-12-09T20:19:05.0271064Z",
      "Hash": "2OtKOd5DUUKJSDClCfRwc+ubVDI",
      "Attributes": 32
    },
    {
      "RelativePath": "読んでね.txt",
      "Size": 4427,
      "LastWriting": "2021-12-22T04:01:05.3146481Z",
      "Hash": "2xUaDAjFMxCC6tXUIuMVNW+qsZM",
      "Attributes": 32
    },
    {
      "RelativePath": "けもフレスーパーパーティー_Data/app.info",
      "Size": 52,
      "LastWriting": "2021-12-22T04:37:54.3747115Z",
      "Hash": "hAz1yWUZwv6SpAbFLroCyDUkYFA",
      "Attributes": 8224
    },
    {
      "RelativePath": "けもフレスーパーパーティー_Data/boot.config",
      "Size": 150,
      "LastWriting": "2021-12-22T04:37:54.0620296Z",
      "Hash": "Xk0U2UqLQd6HddtyIiBS6OoDEs4",
      "Attributes": 8224
    },
    {
      "RelativePath": "けもフレスーパーパーティー_Data/globalgamemanagers",
      "Size": 340196,
      "LastWriting": "2021-12-22T04:37:48.5727067Z",
      "Hash": "k1Jsj3K/iJPfiez6E6H+oFXmeDk",
      "Attributes": 8224
    },
    {
      "RelativePath": "けもフレスーパーパーティー_Data/globalgamemanagers.assets",
      "Size": 216780,
      "LastWriting": "2021-12-22T04:37:48.7881361Z",
      "Hash": "WkdMFZ2ATC/skPPCScgthjWzabU",
      "Attributes": 8224
    },
    {
      "RelativePath": "けもフレスーパーパーティー_Data/level0",
      "Size": 5544,
      "LastWriting": "2021-12-22T04:37:43.3352788Z",
      "Hash": "rTWP/On8aQSogxUYa/3wDq71m/w",
      "Attributes": 8224
    },
    {
      "RelativePath": "けもフレスーパーパーティー_Data/resources.assets",
      "Size": 5160532,
      "LastWriting": "2021-12-22T04:37:53.8256493Z",
      "Hash": "xI5JueVV7rDd/VQlXiGUG5jyKRY",
      "Attributes": 8224
    },
    {
      "RelativePath": "けもフレスーパーパーティー_Data/resources.assets.resS",
      "Size": 18823780,
      "LastWriting": "2021-12-22T04:37:53.8186688Z",
      "Hash": "4JazQE5XL2to80i3szt26fuAyyM",
      "Attributes": 8224
    },
    {
      "RelativePath": "けもフレスーパーパーティー_Data/sharedassets0.assets",
      "Size": 11996,
      "LastWriting": "2021-12-22T04:37:53.8465937Z",
      "Hash": "A5vRq9PzLH3/FMcE7RY5PjngXPo",
      "Attributes": 8224
    },
    {
      "RelativePath": "けもフレスーパーパーティー_Data/il2cpp_data/etc/mono/browscap.ini",
      "Size": 311984,
      "LastWriting": "2020-11-18T21:33:34Z",
      "Hash": "LVRU4WHeiltlkQ8nvXDZ0K2PpHY",
      "Attributes": 8224
    },
    {
      "RelativePath": "けもフレスーパーパーティー_Data/il2cpp_data/etc/mono/config",
      "Size": 3276,
      "LastWriting": "2020-11-18T21:33:34Z",
      "Hash": "xEg15Igdlal7WXvr/13roCM6WIc",
      "Attributes": 8224
    },
    {
      "RelativePath": "けもフレスーパーパーティー_Data/il2cpp_data/etc/mono/2.0/DefaultWsdlHelpGenerator.aspx",
      "Size": 60575,
      "LastWriting": "2020-11-18T21:31:24Z",
      "Hash": "s+S1CKqzzyAcBoknE7Q92wxDt64",
      "Attributes": 8224
    },
    {
      "RelativePath": "けもフレスーパーパーティー_Data/il2cpp_data/etc/mono/2.0/machine.config",
      "Size": 29116,
      "LastWriting": "2020-11-18T21:31:24Z",
      "Hash": "2NtxEfzloI2LfJpuHgrS+/NM/hI",
      "Attributes": 8224
    },
    {
      "RelativePath": "けもフレスーパーパーティー_Data/il2cpp_data/etc/mono/2.0/settings.map",
      "Size": 2622,
      "LastWriting": "2020-11-18T21:31:24Z",
      "Hash": "3Svi28zTRzZxkwGu6SQp1CWOpaA",
      "Attributes": 8224
    },
    {
      "RelativePath": "けもフレスーパーパーティー_Data/il2cpp_data/etc/mono/2.0/web.config",
      "Size": 11686,
      "LastWriting": "2020-11-18T21:31:24Z",
      "Hash": "pNfgVRb2PWq2cyeymdT7KFLLhAs",
      "Attributes": 8224
    },
    {
      "RelativePath": "けもフレスーパーパーティー_Data/il2cpp_data/etc/mono/2.0/Browsers/Compat.browser",
      "Size": 1605,
      "LastWriting": "2020-11-18T21:31:24Z",
      "Hash": "GH3/UW+USOY+pQeBkLM0eSLEs+s",
      "Attributes": 8224
    },
    {
      "RelativePath": "けもフレスーパーパーティー_Data/il2cpp_data/etc/mono/4.0/DefaultWsdlHelpGenerator.aspx",
      "Size": 60575,
      "LastWriting": "2020-11-18T21:31:24Z",
      "Hash": "s+S1CKqzzyAcBoknE7Q92wxDt64",
      "Attributes": 8224
    },
    {
      "RelativePath": "けもフレスーパーパーティー_Data/il2cpp_data/etc/mono/4.0/machine.config",
      "Size": 33648,
      "LastWriting": "2020-11-18T21:31:24Z",
      "Hash": "kkW+/NEWRY6WGWlPGnhcUPphtY4",
      "Attributes": 8224
    },
    {
      "RelativePath": "けもフレスーパーパーティー_Data/il2cpp_data/etc/mono/4.0/settings.map",
      "Size": 2622,
      "LastWriting": "2020-11-18T21:31:24Z",
      "Hash": "jhfirsQjqOb7Q+jL5iFQQCF7uKM",
      "Attributes": 8224
    },
    {
      "RelativePath": "けもフレスーパーパーティー_Data/il2cpp_data/etc/mono/4.0/web.config",
      "Size": 18848,
      "LastWriting": "2020-11-18T21:31:24Z",
      "Hash": "fXdtcwy9JTVkcT82Vz3YNmeCeIw",
      "Attributes": 8224
    },
    {
      "RelativePath": "けもフレスーパーパーティー_Data/il2cpp_data/etc/mono/4.0/Browsers/Compat.browser",
      "Size": 1605,
      "LastWriting": "2020-11-18T21:31:24Z",
      "Hash": "GH3/UW+USOY+pQeBkLM0eSLEs+s",
      "Attributes": 8224
    },
    {
      "RelativePath": "けもフレスーパーパーティー_Data/il2cpp_data/etc/mono/4.5/DefaultWsdlHelpGenerator.aspx",
      "Size": 60575,
      "LastWriting": "2020-11-18T21:31:24Z",
      "Hash": "s+S1CKqzzyAcBoknE7Q92wxDt64",
      "Attributes": 8224
    },
    {
      "RelativePath": "けもフレスーパーパーティー_Data/il2cpp_data/etc/mono/4.5/machine.config",
      "Size": 34106,
      "LastWriting": "2020-11-18T21:31:24Z",
      "Hash": "HhGPS1wcansYWOP8yxsdEJVWGXY",
      "Attributes": 8224
    },
    {
      "RelativePath": "けもフレスーパーパーティー_Data/il2cpp_data/etc/mono/4.5/settings.map",
      "Size": 2622,
      "LastWriting": "2020-11-18T21:31:24Z",
      "Hash": "jhfirsQjqOb7Q+jL5iFQQCF7uKM",
      "Attributes": 8224
    },
    {
      "RelativePath": "けもフレスーパーパーティー_Data/il2cpp_data/etc/mono/4.5/web.config",
      "Size": 18857,
      "LastWriting": "2020-11-18T21:31:24Z",
      "Hash": "6j4q1tcdSDxUsShS3L3NC6pWmYg",
      "Attributes": 8224
    },
    {
      "RelativePath": "けもフレスーパーパーティー_Data/il2cpp_data/etc/mono/4.5/Browsers/Compat.browser",
      "Size": 1605,
      "LastWriting": "2020-11-18T21:31:24Z",
      "Hash": "GH3/UW+USOY+pQeBkLM0eSLEs+s",
      "Attributes": 8224
    },
    {
      "RelativePath": "けもフレスーパーパーティー_Data/il2cpp_data/etc/mono/mconfig/config.xml",
      "Size": 25817,
      "LastWriting": "2020-11-18T21:31:24Z",
      "Hash": "k2Ug1btcAKGYXXpMTw73Y6kDGGI",
      "Attributes": 8224
    },
    {
      "RelativePath": "けもフレスーパーパーティー_Data/il2cpp_data/Metadata/global-metadata.dat",
      "Size": 9821432,
      "LastWriting": "2021-12-22T04:38:38.5878696Z",
      "Hash": "irTmu3wF7IPL48cfWhJfjb0vUjQ",
      "Attributes": 8224
    },
    {
      "RelativePath": "けもフレスーパーパーティー_Data/il2cpp_data/Resources/mscorlib.dll-resources.dat",
      "Size": 337563,
      "LastWriting": "2021-12-22T04:38:15.1904257Z",
      "Hash": "EaHA4qsvjAb+RQdTXtR+DdJ5pg0",
      "Attributes": 8224
    },
    {
      "RelativePath": "けもフレスーパーパーティー_Data/il2cpp_data/Resources/System.Data.dll-resources.dat",
      "Size": 93718,
      "LastWriting": "2021-12-22T04:38:15.1904257Z",
      "Hash": "STwD6c/vb3KgD5ICPNuIUn399yw",
      "Attributes": 8224
    },
    {
      "RelativePath": "けもフレスーパーパーティー_Data/Plugins/x86/Rewired_DirectInput.dll",
      "Size": 11264,
      "LastWriting": "2021-04-18T08:38:14Z",
      "Hash": "oHap1tHmG0s7aI5nLRSmVKmgXYY",
      "Attributes": 8224
    },
    {
      "RelativePath": "けもフレスーパーパーティー_Data/Resources/unity default resources",
      "Size": 4497148,
      "LastWriting": "2020-11-18T21:53:36Z",
      "Hash": "0FkuP35mo5AHJxLuFScXF53gXi8",
      "Attributes": 8224
    },
    {
      "RelativePath": "けもフレスーパーパーティー_Data/Resources/unity_builtin_extra",
      "Size": 418764,
      "LastWriting": "2021-12-22T04:37:54.0450747Z",
      "Hash": "o/p/qJceufSv08dg0XybwT/YWis",
      "Attributes": 8224
    },
    {
      "RelativePath": "けもフレスーパーパーティー_Data/StreamingAssets/StandaloneWindows/-1005016696",
      "Size": 852871,
      "LastWriting": "2021-12-22T04:33:47.6493654Z",
      "Hash": "d+uBVI6RT7hqLucEHq8JWZOnFGw",
      "Attributes": 32
    },
    {
      "RelativePath": "けもフレスーパーパーティー_Data/StreamingAssets/StandaloneWindows/-1022367289",
      "Size": 365089,
      "LastWriting": "2021-12-19T08:04:58.9396981Z",
      "Hash": "3BuADVmR5S0h5GIW0DMr529c6bI",
      "Attributes": 32
    },
    {
      "RelativePath": "けもフレスーパーパーティー_Data/StreamingAssets/StandaloneWindows/-104541871",
      "Size": 6481,
      "LastWriting": "2021-12-22T00:33:13.1046283Z",
      "Hash": "/3brgKm2+tS410TqxBaGAiI/8hc",
      "Attributes": 32
    },
    {
      "RelativePath": "けもフレスーパーパーティー_Data/StreamingAssets/StandaloneWindows/-1091775211",
      "Size": 501746,
      "LastWriting": "2021-12-06T14:54:58.3076472Z",
      "Hash": "ZYN2FE5aQRiBfNvZnmfBz4ZjtoY",
      "Attributes": 32
    },
    {
      "RelativePath": "けもフレスーパーパーティー_Data/StreamingAssets/StandaloneWindows/-1105847098",
      "Size": 7307,
      "LastWriting": "2021-12-22T00:33:04.0124971Z",
      "Hash": "zI51FxekxaCTOLKIPDuJnYMdZz4",
      "Attributes": 32
    },
    {
      "RelativePath": "けもフレスーパーパーティー_Data/StreamingAssets/StandaloneWindows/-1110880446",
      "Size": 606544,
      "LastWriting": "2021-11-05T17:20:34.7638938Z",
      "Hash": "J6UHy8BUcB7Sz1CL+dvFQOvJQqw",
      "Attributes": 32
    },
    {
      "RelativePath": "けもフレスーパーパーティー_Data/StreamingAssets/StandaloneWindows/-111232063",
      "Size": 2859057,
      "LastWriting": "2021-12-22T00:33:06.7827666Z",
      "Hash": "l8PoRo+7U80OM3I+mXj0LqUZxnY",
      "Attributes": 32
    },
    {
      "RelativePath": "けもフレスーパーパーティー_Data/StreamingAssets/StandaloneWindows/-1163650730",
      "Size": 320227,
      "LastWriting": "2021-12-22T00:33:06.259657Z",
      "Hash": "Bea4IqndH83PyE/LNQEfi2IH/7o",
      "Attributes": 32
    },
    {
      "RelativePath": "けもフレスーパーパーティー_Data/StreamingAssets/StandaloneWindows/-125606916",
      "Size": 245498,
      "LastWriting": "2021-10-12T16:11:25.1847406Z",
      "Hash": "N6jshb2PyoZnOySsf2JDb8O5eV4",
      "Attributes": 32
    },
    {
      "RelativePath": "けもフレスーパーパーティー_Data/StreamingAssets/StandaloneWindows/-1288355201",
      "Size": 96530,
      "LastWriting": "2021-12-22T00:33:05.0997216Z",
      "Hash": "9V+rqV7zjz1iQmOlQeWeayhxjfE",
      "Attributes": 32
    },
    {
      "RelativePath": "けもフレスーパーパーティー_Data/StreamingAssets/StandaloneWindows/-1324185425",
      "Size": 2226,
      "LastWriting": "2021-12-22T04:33:56.7162544Z",
      "Hash": "MOD78ZH0XNud8xjKGpdZHouCjLc",
      "Attributes": 32
    },
    {
      "RelativePath": "けもフレスーパーパーティー_Data/StreamingAssets/StandaloneWindows/-1345746539",
      "Size": 351644,
      "LastWriting": "2021-12-22T00:33:06.523459Z",
      "Hash": "AtNPtvztodWVYrG6Xqe8TfowiHw",
      "Attributes": 32
    },
    {
      "RelativePath": "けもフレスーパーパーティー_Data/StreamingAssets/StandaloneWindows/-1356416686",
      "Size": 12085,
      "LastWriting": "2021-10-18T11:23:35.423445Z",
      "Hash": "jcF4NxZ6zhoMmCMq/Qphmp6ec0o",
      "Attributes": 32
    },
    {
      "RelativePath": "けもフレスーパーパーティー_Data/StreamingAssets/StandaloneWindows/-1375511114",
      "Size": 8591,
      "LastWriting": "2021-12-02T08:09:04.7171711Z",
      "Hash": "hxauBazfeQ16EYw2LJbVnk9919Y",
      "Attributes": 32
    },
    {
      "RelativePath": "けもフレスーパーパーティー_Data/StreamingAssets/StandaloneWindows/-146331856",
      "Size": 301326,
      "LastWriting": "2021-12-22T00:33:06.3509199Z",
      "Hash": "HO39DMyOTsnUud9TgbMyOnB9JsI",
      "Attributes": 32
    },
    {
      "RelativePath": "けもフレスーパーパーティー_Data/StreamingAssets/StandaloneWindows/-1488405969",
      "Size": 1129,
      "LastWriting": "2021-12-22T04:33:57.9815847Z",
      "Hash": "EC5LTK9NGEd77cI281skt+IIwGo",
      "Attributes": 32
    },
    {
      "RelativePath": "けもフレスーパーパーティー_Data/StreamingAssets/StandaloneWindows/-1514514859",
      "Size": 7424308,
      "LastWriting": "2021-12-22T00:33:12.5785179Z",
      "Hash": "nbmWwrQgQUo0qxrK73EqoY+olBw",
      "Attributes": 32
    },
    {
      "RelativePath": "けもフレスーパーパーティー_Data/StreamingAssets/StandaloneWindows/-1515332169",
      "Size": 84464,
      "LastWriting": "2021-12-22T00:33:06.4297097Z",
      "Hash": "rHYETHDkkp4AKIvQXzTbCrnM6TY",
      "Attributes": 32
    },
    {
      "RelativePath": "けもフレスーパーパーティー_Data/StreamingAssets/StandaloneWindows/-1531426800",
      "Size": 1174621,
      "LastWriting": "2021-10-06T15:25:33.3002371Z",
      "Hash": "26zWhjA4/cqS7BWYBM0i1gEU2+Q",
      "Attributes": 32
    },
    {
      "RelativePath": "けもフレスーパーパーティー_Data/StreamingAssets/StandaloneWindows/-1572463379",
      "Size": 1483785,
      "LastWriting": "2021-12-02T08:09:05.5404339Z",
      "Hash": "H7evNWmMHS1xBjGz0V/j1us5Zw4",
      "Attributes": 32
    },
    {
      "RelativePath": "けもフレスーパーパーティー_Data/StreamingAssets/StandaloneWindows/-157669782",
      "Size": 41636,
      "LastWriting": "2021-12-22T00:33:04.251366Z",
      "Hash": "O4MLzrzJ10xU6b0yYlt5LQn9RKA",
      "Attributes": 32
    },
    {
      "RelativePath": "けもフレスーパーパーティー_Data/StreamingAssets/StandaloneWindows/-1594632606",
      "Size": 13275,
      "LastWriting": "2021-10-10T14:44:01.7735725Z",
      "Hash": "biGJBTzpBwTePW+ghXdwromzJjc",
      "Attributes": 32
    },
    {
      "RelativePath": "けもフレスーパーパーティー_Data/StreamingAssets/StandaloneWindows/-1607671977",
      "Size": 7644,
      "LastWriting": "2021-12-22T00:33:12.9500415Z",
      "Hash": "7XsjIjKRaZeOcMZqiO7Of9yztdc",
      "Attributes": 32
    },
    {
      "RelativePath": "けもフレスーパーパーティー_Data/StreamingAssets/StandaloneWindows/-1613753525",
      "Size": 1374782,
      "LastWriting": "2021-12-22T03:59:47.1398357Z",
      "Hash": "9qFlPGKyEXuQ/4ittVn4wpJqggw",
      "Attributes": 32
    },
    {
      "RelativePath": "けもフレスーパーパーティー_Data/StreamingAssets/StandaloneWindows/-167467830",
      "Size": 274564,
      "LastWriting": "2021-10-12T16:11:25.0281586Z",
      "Hash": "RMgM8rWdxYt0j1l+sKZIkz21WFA",
      "Attributes": 32
    },
    {
      "RelativePath": "けもフレスーパーパーティー_Data/StreamingAssets/StandaloneWindows/-171147155",
      "Size": 13464,
      "LastWriting": "2021-12-02T08:09:05.0691302Z",
      "Hash": "LXMRYXQODP6yoL4GhBoMOtknElA",
      "Attributes": 32
    },
    {
      "RelativePath": "けもフレスーパーパーティー_Data/StreamingAssets/StandaloneWindows/-1716982208",
      "Size": 2173599,
      "LastWriting": "2021-12-09T18:50:00.6376152Z",
      "Hash": "L3kRPzVnPMfaSy/TowEkRbeSi7w",
      "Attributes": 32
    },
    {
      "RelativePath": "けもフレスーパーパーティー_Data/StreamingAssets/StandaloneWindows/-1718503337",
      "Size": 16345891,
      "LastWriting": "2021-12-06T19:41:16.1407398Z",
      "Hash": "uqv5ZU06PRf5OfUiL0fVu2CCfbU",
      "Attributes": 8224
    },
    {
      "RelativePath": "けもフレスーパーパーティー_Data/StreamingAssets/StandaloneWindows/-1754151607",
      "Size": 84893,
      "LastWriting": "2021-12-22T00:33:04.8678487Z",
      "Hash": "jB68XjgPxbQs/wulE/OSYplPIs8",
      "Attributes": 32
    },
    {
      "RelativePath": "けもフレスーパーパーティー_Data/StreamingAssets/StandaloneWindows/-1769092273",
      "Size": 12904,
      "LastWriting": "2021-10-06T15:25:33.9850417Z",
      "Hash": "262zbRcuflA9HXZB89UDn86AWiY",
      "Attributes": 32
    },
    {
      "RelativePath": "けもフレスーパーパーティー_Data/StreamingAssets/StandaloneWindows/-1798364490",
      "Size": 527,
      "LastWriting": "2021-12-22T04:33:56.0526985Z",
      "Hash": "vJn4hLdNR8hW/ikCe2c7WmMyxMg",
      "Attributes": 32
    },
    {
      "RelativePath": "けもフレスーパーパーティー_Data/StreamingAssets/StandaloneWindows/-1818581194",
      "Size": 12498728,
      "LastWriting": "2021-12-22T03:59:46.7871229Z",
      "Hash": "uRUht7NPadBptw36DK4gbCm/XX4",
      "Attributes": 32
    },
    {
      "RelativePath": "けもフレスーパーパーティー_Data/StreamingAssets/StandaloneWindows/-1827095066",
      "Size": 754386,
      "LastWriting": "2021-10-12T08:09:44.0737125Z",
      "Hash": "qF4QZ7CdkT3Fa0PMua8x6paChh8",
      "Attributes": 32
    },
    {
      "RelativePath": "けもフレスーパーパーティー_Data/StreamingAssets/StandaloneWindows/-1830799975",
      "Size": 36847,
      "LastWriting": "2021-10-06T15:25:30.3768993Z",
      "Hash": "mr36515yBuDmm2QeIzDcYhph7qo",
      "Attributes": 8224
    },
    {
      "RelativePath": "けもフレスーパーパーティー_Data/StreamingAssets/StandaloneWindows/-1855811986",
      "Size": 1187012,
      "LastWriting": "2021-12-06T15:20:35.8965598Z",
      "Hash": "//nw0EGFTmoAP1w5Ir5WdZLt33I",
      "Attributes": 32
    },
    {
      "RelativePath": "けもフレスーパーパーティー_Data/StreamingAssets/StandaloneWindows/-1866628152",
      "Size": 501994,
      "LastWriting": "2021-12-08T08:50:55.0110896Z",
      "Hash": "G+zsiHsiwy0RcaPjhueFFpN8b6U",
      "Attributes": 32
    },
    {
      "RelativePath": "けもフレスーパーパーティー_Data/StreamingAssets/StandaloneWindows/-1866671540",
      "Size": 501525,
      "LastWriting": "2021-12-22T00:33:04.7834692Z",
      "Hash": "bfsITO7SBypK2Yitp1GHSChmqtk",
      "Attributes": 32
    },
    {
      "RelativePath": "けもフレスーパーパーティー_Data/StreamingAssets/StandaloneWindows/-1872217588",
      "Size": 786981,
      "LastWriting": "2021-12-19T13:10:31.3685314Z",
      "Hash": "G0qKz8QiTTYMDsYlBge1pM/7yO4",
      "Attributes": 32
    },
    {
      "RelativePath": "けもフレスーパーパーティー_Data/StreamingAssets/StandaloneWindows/-1878178629",
      "Size": 399349,
      "LastWriting": "2021-10-06T15:25:33.3778725Z",
      "Hash": "AzJnuN44pfg+pcux/dUu5z1HBgs",
      "Attributes": 32
    },
    {
      "RelativePath": "けもフレスーパーパーティー_Data/StreamingAssets/StandaloneWindows/-1917799386",
      "Size": 3106092,
      "LastWriting": "2021-12-22T00:33:12.8627678Z",
      "Hash": "Wm247qAkORPfyWiYf7g7KtorkWE",
      "Attributes": 32
    },
    {
      "RelativePath": "けもフレスーパーパーティー_Data/StreamingAssets/StandaloneWindows/-1924787945",
      "Size": 8613,
      "LastWriting": "2021-10-29T10:19:28.6645287Z",
      "Hash": "+SwWMoD3uih/3BbSzgWvI77J+Ew",
      "Attributes": 8224
    },
    {
      "RelativePath": "けもフレスーパーパーティー_Data/StreamingAssets/StandaloneWindows/-1944400692",
      "Size": 6903209,
      "LastWriting": "2021-12-22T00:33:06.0601855Z",
      "Hash": "fS1SzTA1oCW0lm5a8Q+AT8jfgtE",
      "Attributes": 32
    },
    {
      "RelativePath": "けもフレスーパーパーティー_Data/StreamingAssets/StandaloneWindows/-1957624130",
      "Size": 2032,
      "LastWriting": "2021-12-22T04:33:55.8322491Z",
      "Hash": "7YHg7iYNiLcBKLaXa1QTX0WAu+M",
      "Attributes": 32
    },
    {
      "RelativePath": "けもフレスーパーパーティー_Data/StreamingAssets/StandaloneWindows/-1957629894",
      "Size": 1733,
      "LastWriting": "2021-12-22T04:33:55.7005698Z",
      "Hash": "kJOwe2auBvqoggk6PY73U5/KCPQ",
      "Attributes": 32
    },
    {
      "RelativePath": "けもフレスーパーパーティー_Data/StreamingAssets/StandaloneWindows/-1966903559",
      "Size": 12681,
      "LastWriting": "2021-11-15T07:04:17.8018455Z",
      "Hash": "fHGN+OHRBfAdD69EnwROqVujprM",
      "Attributes": 32
    },
    {
      "RelativePath": "けもフレスーパーパーティー_Data/StreamingAssets/StandaloneWindows/-2056195063",
      "Size": 10560,
      "LastWriting": "2021-12-22T00:33:13.0248417Z",
      "Hash": "CV49EXYbWu0U+te+nTLcuIeTiTc",
      "Attributes": 32
    },
    {
      "RelativePath": "けもフレスーパーパーティー_Data/StreamingAssets/StandaloneWindows/-2066441018",
      "Size": 9965,
      "LastWriting": "2021-11-15T07:04:17.5734247Z",
      "Hash": "bjkyZDzfbnKKVNhORxmttCfq1gg",
      "Attributes": 32
    },
    {
      "RelativePath": "けもフレスーパーパーティー_Data/StreamingAssets/StandaloneWindows/-2086373761",
      "Size": 1482334,
      "LastWriting": "2021-11-29T17:48:32.4587678Z",
      "Hash": "S7U7Rd9PpVflOxx8sORPqO875fs",
      "Attributes": 32
    },
    {
      "RelativePath": "けもフレスーパーパーティー_Data/StreamingAssets/StandaloneWindows/-2134708212",
      "Size": 1146185,
      "LastWriting": "2021-10-18T11:23:35.6126259Z",
      "Hash": "VD54555qFSlQhZ1LdfXQrCSclRc",
      "Attributes": 32
    },
    {
      "RelativePath": "けもフレスーパーパーティー_Data/StreamingAssets/StandaloneWindows/-220966274",
      "Size": 1428607,
      "LastWriting": "2021-10-08T08:02:45.5077539Z",
      "Hash": "kyDgq62cjnDVkCB12N1GfILsp9g",
      "Attributes": 32
    },
    {
      "RelativePath": "けもフレスーパーパーティー_Data/StreamingAssets/StandaloneWindows/-266765385",
      "Size": 1773648,
      "LastWriting": "2021-10-06T15:25:34.1645606Z",
      "Hash": "QEIQN8TaVtjqaRNhUttip1W3jKA",
      "Attributes": 32
    },
    {
      "RelativePath": "けもフレスーパーパーティー_Data/StreamingAssets/StandaloneWindows/-309512362",
      "Size": 2124,
      "LastWriting": "2021-12-22T04:33:55.9240056Z",
      "Hash": "plI/nCbPhj3LMbfw+i8D1psqvQM",
      "Attributes": 32
    },
    {
      "RelativePath": "けもフレスーパーパーティー_Data/StreamingAssets/StandaloneWindows/-322507401",
      "Size": 155945,
      "LastWriting": "2021-11-30T23:13:09.0119615Z",
      "Hash": "J5CmWLkDUhZ7wJk3HCndMflXTT8",
      "Attributes": 8224
    },
    {
      "RelativePath": "けもフレスーパーパーティー_Data/StreamingAssets/StandaloneWindows/-37016888",
      "Size": 3388,
      "LastWriting": "2021-12-22T00:33:04.1690511Z",
      "Hash": "J5S1IHCJe6PQSo5TWEzaH6xuUuk",
      "Attributes": 32
    },
    {
      "RelativePath": "けもフレスーパーパーティー_Data/StreamingAssets/StandaloneWindows/-393128047",
      "Size": 98147,
      "LastWriting": "2021-12-22T00:33:05.4417795Z",
      "Hash": "TeTbCWVoypP5jkyo+jp3ivF3boQ",
      "Attributes": 32
    },
    {
      "RelativePath": "けもフレスーパーパーティー_Data/StreamingAssets/StandaloneWindows/-401274169",
      "Size": 831043,
      "LastWriting": "2021-12-22T04:33:48.1524672Z",
      "Hash": "W+5B9hWHkhC4Wv4oEl7JY2w8j9E",
      "Attributes": 32
    },
    {
      "RelativePath": "けもフレスーパーパーティー_Data/StreamingAssets/StandaloneWindows/-413592360",
      "Size": 897452,
      "LastWriting": "2021-11-15T07:04:17.524555Z",
      "Hash": "/3rEV7nZzX6i24NGwic/4zHjYMs",
      "Attributes": 32
    },
    {
      "RelativePath": "けもフレスーパーパーティー_Data/StreamingAssets/StandaloneWindows/-450878048",
      "Size": 382216,
      "LastWriting": "2021-10-06T15:25:30.5103347Z",
      "Hash": "XbSSznruHG8+7ueOyC4I0lowHDQ",
      "Attributes": 8224
    },
    {
      "RelativePath": "けもフレスーパーパーティー_Data/StreamingAssets/StandaloneWindows/-504259158",
      "Size": 54751,
      "LastWriting": "2021-12-22T00:33:04.9441364Z",
      "Hash": "TCjwxV+jIg08bxSDUFpGZBRoHiQ",
      "Attributes": 32
    },
    {
      "RelativePath": "けもフレスーパーパーティー_Data/StreamingAssets/StandaloneWindows/-527125207",
      "Size": 279390,
      "LastWriting": "2021-10-06T15:25:33.8618599Z",
      "Hash": "rOT/lzP5LjJhiyj+kdXKfWmrCDo",
      "Attributes": 32
    },
    {
      "RelativePath": "けもフレスーパーパーティー_Data/StreamingAssets/StandaloneWindows/-530654347",
      "Size": 1576875,
      "LastWriting": "2021-12-22T04:33:47.8274007Z",
      "Hash": "4Lb04GMe0wKG27Zh8IKSr77UzXI",
      "Attributes": 32
    },
    {
      "RelativePath": "けもフレスーパーパーティー_Data/StreamingAssets/StandaloneWindows/-532655081",
      "Size": 124008,
      "LastWriting": "2021-12-22T00:33:05.5225641Z",
      "Hash": "RogUxuWaEK9VgHKJsiGiUwYRFEs",
      "Attributes": 32
    },
    {
      "RelativePath": "けもフレスーパーパーティー_Data/StreamingAssets/StandaloneWindows/-565381271",
      "Size": 12462,
      "LastWriting": "2021-11-29T12:25:11.5506285Z",
      "Hash": "7EJH2u3c5MWMvX0rCFAXSRdqDTo",
      "Attributes": 32
    },
    {
      "RelativePath": "けもフレスーパーパーティー_Data/StreamingAssets/StandaloneWindows/-567421546",
      "Size": 10130910,
      "LastWriting": "2021-12-22T00:33:12.0231936Z",
      "Hash": "V6/xy1rT0HF1rl6tSF3BNrW26Mg",
      "Attributes": 32
    },
    {
      "RelativePath": "けもフレスーパーパーティー_Data/StreamingAssets/StandaloneWindows/-603550041",
      "Size": 2161,
      "LastWriting": "2021-12-22T04:33:55.2786869Z",
      "Hash": "VAfoteKNw/XORPqUCzdWBmMyubU",
      "Attributes": 32
    },
    {
      "RelativePath": "けもフレスーパーパーティー_Data/StreamingAssets/StandaloneWindows/-604331293",
      "Size": 101225,
      "LastWriting": "2021-12-22T00:33:07.440515Z",
      "Hash": "BDrU+124W87RVDkkALqMIhBlgoc",
      "Attributes": 32
    },
    {
      "RelativePath": "けもフレスーパーパーティー_Data/StreamingAssets/StandaloneWindows/-621441550",
      "Size": 2038136,
      "LastWriting": "2021-12-21T14:17:27.8795189Z",
      "Hash": "cw/f99Wu1uOdzINkbTL/sZYXebA",
      "Attributes": 32
    },
    {
      "RelativePath": "けもフレスーパーパーティー_Data/StreamingAssets/StandaloneWindows/-65914912",
      "Size": 3553785,
      "LastWriting": "2021-12-22T00:33:07.3118585Z",
      "Hash": "bpj+n+P75JqFg98Ot51asG9o/KE",
      "Attributes": 32
    },
    {
      "RelativePath": "けもフレスーパーパーティー_Data/StreamingAssets/StandaloneWindows/-668287708",
      "Size": 31474,
      "LastWriting": "2021-12-18T07:43:51.5847135Z",
      "Hash": "D8S1C70X1MhBXN6zy/uNUVJVQOU",
      "Attributes": 32
    },
    {
      "RelativePath": "けもフレスーパーパーティー_Data/StreamingAssets/StandaloneWindows/-682824013",
      "Size": 1128,
      "LastWriting": "2021-12-22T04:33:57.5381213Z",
      "Hash": "Wy5bKJrQX25GZnTR9a7GzWEqXEw",
      "Attributes": 32
    },
    {
      "RelativePath": "けもフレスーパーパーティー_Data/StreamingAssets/StandaloneWindows/-712921388",
      "Size": 910031,
      "LastWriting": "2021-12-08T08:44:42.2568847Z",
      "Hash": "cQJV+w6M1MXBhNv6sGbfsVJ26Bg",
      "Attributes": 32
    },
    {
      "RelativePath": "けもフレスーパーパーティー_Data/StreamingAssets/StandaloneWindows/-830267065",
      "Size": 80324,
      "LastWriting": "2021-11-29T20:50:21.4257782Z",
      "Hash": "nfZ5hbrKyA8RVLvi/9/VdtYeD5A",
      "Attributes": 8224
    },
    {
      "RelativePath": "けもフレスーパーパーティー_Data/StreamingAssets/StandaloneWindows/-843460660",
      "Size": 68608,
      "LastWriting": "2021-12-02T12:57:03.4632741Z",
      "Hash": "dOav/TJPCDiQm489hKc3XbH8rBk",
      "Attributes": 32
    },
    {
      "RelativePath": "けもフレスーパーパーティー_Data/StreamingAssets/StandaloneWindows/-843460693",
      "Size": 97063,
      "LastWriting": "2021-12-17T15:16:30.3759052Z",
      "Hash": "Lvp1qS+ngqbh2tsNKoFvAAE1tVI",
      "Attributes": 32
    },
    {
      "RelativePath": "けもフレスーパーパーティー_Data/StreamingAssets/StandaloneWindows/-848026927",
      "Size": 966457,
      "LastWriting": "2021-11-16T13:33:45.4611547Z",
      "Hash": "teNt81bDXmwnUdrkijjTgb6kb/Q",
      "Attributes": 32
    },
    {
      "RelativePath": "けもフレスーパーパーティー_Data/StreamingAssets/StandaloneWindows/-882238324",
      "Size": 10187,
      "LastWriting": "2021-11-28T14:08:21.5237745Z",
      "Hash": "wOMDQdTzbdCmmhVcXyjj1NPIPV4",
      "Attributes": 32
    },
    {
      "RelativePath": "けもフレスーパーパーティー_Data/StreamingAssets/StandaloneWindows/-890445748",
      "Size": 12753,
      "LastWriting": "2021-11-25T18:03:56.1401235Z",
      "Hash": "ZVUvearVh1Yx7B66tKjn0bTUNEg",
      "Attributes": 32
    },
    {
      "RelativePath": "けもフレスーパーパーティー_Data/StreamingAssets/StandaloneWindows/-890951480",
      "Size": 1102723,
      "LastWriting": "2021-12-22T04:33:48.0034421Z",
      "Hash": "+nFrPTxpCy0+foJB861yWKfJjtk",
      "Attributes": 32
    },
    {
      "RelativePath": "けもフレスーパーパーティー_Data/StreamingAssets/StandaloneWindows/-908256603",
      "Size": 1407961,
      "LastWriting": "2021-11-29T12:25:11.6962949Z",
      "Hash": "qSuc3TZ53M6+BtEI6ir3L8z87C0",
      "Attributes": 32
    },
    {
      "RelativePath": "けもフレスーパーパーティー_Data/StreamingAssets/StandaloneWindows/-918151531",
      "Size": 1855,
      "LastWriting": "2021-12-22T03:59:46.9965781Z",
      "Hash": "/2JN1R37sJvibDHW4QrWnCbmn+E",
      "Attributes": 32
    },
    {
      "RelativePath": "けもフレスーパーパーティー_Data/StreamingAssets/StandaloneWindows/-942545800",
      "Size": 314626,
      "LastWriting": "2021-12-19T07:57:05.2903537Z",
      "Hash": "ke86A39q8ovW0EXDseECUAvAX6Y",
      "Attributes": 8224
    },
    {
      "RelativePath": "けもフレスーパーパーティー_Data/StreamingAssets/StandaloneWindows/-952340062",
      "Size": 2116460,
      "LastWriting": "2021-12-22T04:33:47.3511558Z",
      "Hash": "asgwm1DtLE4cao0gCIFgrQycHgg",
      "Attributes": 32
    },
    {
      "RelativePath": "けもフレスーパーパーティー_Data/StreamingAssets/StandaloneWindows/-970706073",
      "Size": 3838659,
      "LastWriting": "2021-12-22T00:33:11.2816686Z",
      "Hash": "cpphcCKZpOyQqdsUhFQCRf7L2WU",
      "Attributes": 32
    },
    {
      "RelativePath": "けもフレスーパーパーティー_Data/StreamingAssets/StandaloneWindows/100324862",
      "Size": 76553,
      "LastWriting": "2021-11-23T23:28:10.8475272Z",
      "Hash": "QZp5CGE97wJNQ32Z5QLkyhI2XxM",
      "Attributes": 32
    },
    {
      "RelativePath": "けもフレスーパーパーティー_Data/StreamingAssets/StandaloneWindows/1006683104",
      "Size": 1675570,
      "LastWriting": "2021-12-08T08:44:42.1469479Z",
      "Hash": "frromAXg2MBBplpR61vlPrcZgd4",
      "Attributes": 32
    },
    {
      "RelativePath": "けもフレスーパーパーティー_Data/StreamingAssets/StandaloneWindows/1012329532",
      "Size": 1192953,
      "LastWriting": "2021-12-08T08:44:42.4409122Z",
      "Hash": "gLnfnUPCQts1SVD7AIgMS82KVSM",
      "Attributes": 32
    },
    {
      "RelativePath": "けもフレスーパーパーティー_Data/StreamingAssets/StandaloneWindows/1017457437",
      "Size": 400821,
      "LastWriting": "2021-12-22T03:59:47.3477691Z",
      "Hash": "o7FpcsgcvBg8lFjRY+8QwWLSuOg",
      "Attributes": 32
    },
    {
      "RelativePath": "けもフレスーパーパーティー_Data/StreamingAssets/StandaloneWindows/1041291680",
      "Size": 12168,
      "LastWriting": "2021-10-08T08:02:45.2832956Z",
      "Hash": "Fnhc7M8yoVK1kGV8iTyKCr7tt34",
      "Attributes": 32
    },
    {
      "RelativePath": "けもフレスーパーパーティー_Data/StreamingAssets/StandaloneWindows/1042665102",
      "Size": 662741,
      "LastWriting": "2021-12-09T18:26:46.4293652Z",
      "Hash": "hB+U7dwbt7h4MGfCkfpP8mNazSg",
      "Attributes": 32
    },
    {
      "RelativePath": "けもフレスーパーパーティー_Data/StreamingAssets/StandaloneWindows/1070414505",
      "Size": 3507495,
      "LastWriting": "2021-12-02T08:09:05.3501732Z",
      "Hash": "F3CwWODS5ygT4RxMjz0zU+ZJoLU",
      "Attributes": 32
    },
    {
      "RelativePath": "けもフレスーパーパーティー_Data/StreamingAssets/StandaloneWindows/1075515",
      "Size": 93721,
      "LastWriting": "2021-11-23T23:28:10.7906791Z",
      "Hash": "zy0itfG0dKJN0sD+xBBcTGqLtWQ",
      "Attributes": 32
    },
    {
      "RelativePath": "けもフレスーパーパーティー_Data/StreamingAssets/StandaloneWindows/1092093204",
      "Size": 13512,
      "LastWriting": "2021-12-21T14:17:27.6386261Z",
      "Hash": "RhSapDRA55qPdkilgvFn7iZiHRs",
      "Attributes": 32
    },
    {
      "RelativePath": "けもフレスーパーパーティー_Data/StreamingAssets/StandaloneWindows/1145449339",
      "Size": 818776,
      "LastWriting": "2021-11-15T07:01:35.6213724Z",
      "Hash": "FYZrMzfUlJhrA7POHYaI8ZbNt7w",
      "Attributes": 32
    },
    {
      "RelativePath": "けもフレスーパーパーティー_Data/StreamingAssets/StandaloneWindows/1211675640",
      "Size": 13668,
      "LastWriting": "2021-12-20T13:44:33.7175357Z",
      "Hash": "HK7992/tUC270g2+WGItFR1oDN4",
      "Attributes": 32
    },
    {
      "RelativePath": "けもフレスーパーパーティー_Data/StreamingAssets/StandaloneWindows/1238250093",
      "Size": 1310356,
      "LastWriting": "2021-12-22T04:33:47.5236984Z",
      "Hash": "Lm301r9x/3mBJGeh+c8eWFHDsUc",
      "Attributes": 32
    },
    {
      "RelativePath": "けもフレスーパーパーティー_Data/StreamingAssets/StandaloneWindows/1247785858",
      "Size": 1603342,
      "LastWriting": "2021-11-25T18:03:56.3375992Z",
      "Hash": "OV1H1P2mXLZYWfCTt6L2YBwbNGI",
      "Attributes": 32
    },
    {
      "RelativePath": "けもフレスーパーパーティー_Data/StreamingAssets/StandaloneWindows/1248191123",
      "Size": 989041,
      "LastWriting": "2021-12-22T00:33:04.3890018Z",
      "Hash": "i9q1t05CFRGkTTISH4RPd2vvzcI",
      "Attributes": 32
    },
    {
      "RelativePath": "けもフレスーパーパーティー_Data/StreamingAssets/StandaloneWindows/1270051114",
      "Size": 863240,
      "LastWriting": "2021-11-16T13:33:45.3524304Z",
      "Hash": "6Rxkn/5psHhnGD9bHWyvyskgTtQ",
      "Attributes": 32
    },
    {
      "RelativePath": "けもフレスーパーパーティー_Data/StreamingAssets/StandaloneWindows/1474708820",
      "Size": 492805,
      "LastWriting": "2021-10-25T19:31:11.003712Z",
      "Hash": "7ANlUAAxpRul9SdH7/CctaQC+So",
      "Attributes": 32
    },
    {
      "RelativePath": "けもフレスーパーパーティー_Data/StreamingAssets/StandaloneWindows/148390375",
      "Size": 325955,
      "LastWriting": "2021-10-06T15:25:33.6893186Z",
      "Hash": "axmRpZQ4CC3XRdbVHYXvu0cf7Iw",
      "Attributes": 32
    },
    {
      "RelativePath": "けもフレスーパーパーティー_Data/StreamingAssets/StandaloneWindows/1549328352",
      "Size": 499891,
      "LastWriting": "2021-11-07T14:45:54.8325866Z",
      "Hash": "uv15Fxej8DsfySpV05JuVK+xgRQ",
      "Attributes": 8224
    },
    {
      "RelativePath": "けもフレスーパーパーティー_Data/StreamingAssets/StandaloneWindows/1589565797",
      "Size": 1458,
      "LastWriting": "2021-12-22T04:33:57.6668401Z",
      "Hash": "OUTbRdUuZkf0LtEK0DcOTF4z2Fk",
      "Attributes": 32
    },
    {
      "RelativePath": "けもフレスーパーパーティー_Data/StreamingAssets/StandaloneWindows/1591023446",
      "Size": 2251,
      "LastWriting": "2021-12-22T04:33:57.0134667Z",
      "Hash": "k4CUeTCbkZk/MCCBfPHTXLRS6FM",
      "Attributes": 32
    },
    {
      "RelativePath": "けもフレスーパーパーティー_Data/StreamingAssets/StandaloneWindows/1642215341",
      "Size": 31533,
      "LastWriting": "2021-12-11T04:10:54.6328454Z",
      "Hash": "0C6iREWhopmEfyieh8j9XjpH5VY",
      "Attributes": 8224
    },
    {
      "RelativePath": "けもフレスーパーパーティー_Data/StreamingAssets/StandaloneWindows/1642366486",
      "Size": 1143591,
      "LastWriting": "2021-12-08T08:44:41.7406482Z",
      "Hash": "M2a6ZfEJUS9n2vtK6rpdQWidQdg",
      "Attributes": 32
    },
    {
      "RelativePath": "けもフレスーパーパーティー_Data/StreamingAssets/StandaloneWindows/1671311619",
      "Size": 699,
      "LastWriting": "2021-12-22T04:33:57.7416129Z",
      "Hash": "buyL2iaGmWdQDHXtxAaMFkFo5RY",
      "Attributes": 32
    },
    {
      "RelativePath": "けもフレスーパーパーティー_Data/StreamingAssets/StandaloneWindows/1757081861",
      "Size": 67163,
      "LastWriting": "2021-12-22T00:33:05.1815031Z",
      "Hash": "i9Eud1du1Hna6eV7YVAG2OUKUco",
      "Attributes": 32
    },
    {
      "RelativePath": "けもフレスーパーパーティー_Data/StreamingAssets/StandaloneWindows/1765661609",
      "Size": 248302,
      "LastWriting": "2021-11-16T13:33:45.1628953Z",
      "Hash": "DIsvbjq1iA9NcIhZ/V6PPKumnoM",
      "Attributes": 32
    },
    {
      "RelativePath": "けもフレスーパーパーティー_Data/StreamingAssets/StandaloneWindows/179609506",
      "Size": 1204803,
      "LastWriting": "2021-12-22T03:59:47.2714893Z",
      "Hash": "s6UuaKeZ3neLCCytlBWDZ0MBJt4",
      "Attributes": 32
    },
    {
      "RelativePath": "けもフレスーパーパーティー_Data/StreamingAssets/StandaloneWindows/1820320096",
      "Size": 12251,
      "LastWriting": "2021-12-06T15:20:35.6881048Z",
      "Hash": "U8AbzPMly2Iu++dc0qHLvoPUUhQ",
      "Attributes": 32
    },
    {
      "RelativePath": "けもフレスーパーパーティー_Data/StreamingAssets/StandaloneWindows/1858824218",
      "Size": 31345,
      "LastWriting": "2021-10-11T07:09:07.2135467Z",
      "Hash": "iuQp4EYeq9GvTd8Sev19jhUp3/s",
      "Attributes": 32
    },
    {
      "RelativePath": "けもフレスーパーパーティー_Data/StreamingAssets/StandaloneWindows/1889445109",
      "Size": 2250237,
      "LastWriting": "2021-11-15T07:04:17.7599573Z",
      "Hash": "24PqYMqd7ZOh1hhdoNWENUPj2rw",
      "Attributes": 32
    },
    {
      "RelativePath": "けもフレスーパーパーティー_Data/StreamingAssets/StandaloneWindows/1908892401",
      "Size": 827313,
      "LastWriting": "2021-12-22T00:33:07.0001858Z",
      "Hash": "ck0RmQHWWfm1Y5Vd8gS9PxIAyts",
      "Attributes": 32
    },
    {
      "RelativePath": "けもフレスーパーパーティー_Data/StreamingAssets/StandaloneWindows/1937285803",
      "Size": 106388,
      "LastWriting": "2021-12-22T00:33:06.8655455Z",
      "Hash": "FtxeWu1WBZyRs5reYHDXnraBjCU",
      "Attributes": 32
    },
    {
      "RelativePath": "けもフレスーパーパーティー_Data/StreamingAssets/StandaloneWindows/1960904837",
      "Size": 936,
      "LastWriting": "2021-12-22T04:33:57.0463804Z",
      "Hash": "wOpDjokamVb316qj84lHeiHCBA0",
      "Attributes": 32
    },
    {
      "RelativePath": "けもフレスーパーパーティー_Data/StreamingAssets/StandaloneWindows/1965511301",
      "Size": 54576,
      "LastWriting": "2021-12-22T00:33:05.3630128Z",
      "Hash": "1W1BC4AMtCSI7Haa+3Tm7f/sWDA",
      "Attributes": 32
    },
    {
      "RelativePath": "けもフレスーパーパーティー_Data/StreamingAssets/StandaloneWindows/1995525852",
      "Size": 2651938,
      "LastWriting": "2021-12-22T00:33:04.6413644Z",
      "Hash": "1xH+HqckJmri1ETVCXQftNWJE18",
      "Attributes": 32
    },
    {
      "RelativePath": "けもフレスーパーパーティー_Data/StreamingAssets/StandaloneWindows/1999986719",
      "Size": 124241,
      "LastWriting": "2021-10-06T15:25:33.924709Z",
      "Hash": "Dp2Znc61wqqRRriqYVxDxoReqKE",
      "Attributes": 32
    },
    {
      "RelativePath": "けもフレスーパーパーティー_Data/StreamingAssets/StandaloneWindows/2044864786",
      "Size": 1452413,
      "LastWriting": "2021-12-02T08:09:05.015169Z",
      "Hash": "QPh02Yomzy68IArCP/z7g1uslJw",
      "Attributes": 32
    },
    {
      "RelativePath": "けもフレスーパーパーティー_Data/StreamingAssets/StandaloneWindows/2128073273",
      "Size": 11751,
      "LastWriting": "2021-12-02T08:09:05.3960781Z",
      "Hash": "AOHBfQQT2Cuz2qIABHFum2mBqjA",
      "Attributes": 32
    },
    {
      "RelativePath": "けもフレスーパーパーティー_Data/StreamingAssets/StandaloneWindows/223267371",
      "Size": 45990,
      "LastWriting": "2021-12-22T00:33:05.0199062Z",
      "Hash": "OfnnHM+VYmoNDFajK4bJDtP4/B4",
      "Attributes": 32
    },
    {
      "RelativePath": "けもフレスーパーパーティー_Data/StreamingAssets/StandaloneWindows/234147298",
      "Size": 5502422,
      "LastWriting": "2021-12-08T10:47:52.3468738Z",
      "Hash": "eqB1P8jJXYMPETC08/7ORkkUXCc",
      "Attributes": 32
    },
    {
      "RelativePath": "けもフレスーパーパーティー_Data/StreamingAssets/StandaloneWindows/257334300",
      "Size": 12279,
      "LastWriting": "2021-12-02T08:09:04.8745346Z",
      "Hash": "5wA33dzzE1le2K+psQDZNfjLEbE",
      "Attributes": 32
    },
    {
      "RelativePath": "けもフレスーパーパーティー_Data/StreamingAssets/StandaloneWindows/279671930",
      "Size": 6845,
      "LastWriting": "2021-12-22T00:33:13.1794288Z",
      "Hash": "LPzpkaUIc3pr8x0dQaM9Yh6nJBI",
      "Attributes": 32
    },
    {
      "RelativePath": "けもフレスーパーパーティー_Data/StreamingAssets/StandaloneWindows/330689817",
      "Size": 250185,
      "LastWriting": "2021-10-12T16:11:25.1149269Z",
      "Hash": "sz+4LW0AKF+Wy4HMD+lM1WhAYsg",
      "Attributes": 32
    },
    {
      "RelativePath": "けもフレスーパーパーティー_Data/StreamingAssets/StandaloneWindows/404397056",
      "Size": 6081553,
      "LastWriting": "2021-12-22T00:33:08.3705367Z",
      "Hash": "w0tNGE7qyi1le847BdEqKhLfoKs",
      "Attributes": 32
    },
    {
      "RelativePath": "けもフレスーパーパーティー_Data/StreamingAssets/StandaloneWindows/404397057",
      "Size": 7471016,
      "LastWriting": "2021-12-22T00:33:08.9470071Z",
      "Hash": "XjCw+2Z/2cp6lKg8/0GCjVGZz5w",
      "Attributes": 32
    },
    {
      "RelativePath": "けもフレスーパーパーティー_Data/StreamingAssets/StandaloneWindows/404397059",
      "Size": 4370022,
      "LastWriting": "2021-12-22T00:33:07.9017889Z",
      "Hash": "9D1Mm6etaRMdGeaIgvYDzb5EQjc",
      "Attributes": 32
    },
    {
      "RelativePath": "けもフレスーパーパーティー_Data/StreamingAssets/StandaloneWindows/404397060",
      "Size": 5563927,
      "LastWriting": "2021-12-22T00:33:10.4753477Z",
      "Hash": "+KQzTzmzsHYveu+8it5lVRIzvAE",
      "Attributes": 32
    },
    {
      "RelativePath": "けもフレスーパーパーティー_Data/StreamingAssets/StandaloneWindows/404397061",
      "Size": 5874048,
      "LastWriting": "2021-12-22T00:33:10.9530717Z",
      "Hash": "i6+/WvVoeEvzlJNSqDafxD+GACE",
      "Attributes": 32
    },
    {
      "RelativePath": "けもフレスーパーパーティー_Data/StreamingAssets/StandaloneWindows/404397062",
      "Size": 7484054,
      "LastWriting": "2021-12-22T00:33:09.5069247Z",
      "Hash": "0Wad4fORKxBlrpjgrTWPzKYkibA",
      "Attributes": 32
    },
    {
      "RelativePath": "けもフレスーパーパーティー_Data/StreamingAssets/StandaloneWindows/404397063",
      "Size": 6908116,
      "LastWriting": "2021-12-22T00:33:10.0414967Z",
      "Hash": "xAJ57ZlxCPTtWMiQXttk3HQ2KCY",
      "Attributes": 32
    },
    {
      "RelativePath": "けもフレスーパーパーティー_Data/StreamingAssets/StandaloneWindows/433908404",
      "Size": 2362,
      "LastWriting": "2021-12-22T04:33:56.8538898Z",
      "Hash": "Ms261o9Dh08o215MNWU9/aYXKJU",
      "Attributes": 32
    },
    {
      "RelativePath": "けもフレスーパーパーティー_Data/StreamingAssets/StandaloneWindows/457287248",
      "Size": 263863,
      "LastWriting": "2021-12-22T00:33:07.5282802Z",
      "Hash": "9PJv7CpuyKhtVsEVk7Gs93G9Df8",
      "Attributes": 32
    },
    {
      "RelativePath": "けもフレスーパーパーティー_Data/StreamingAssets/StandaloneWindows/492789572",
      "Size": 513021,
      "LastWriting": "2021-12-06T19:53:50.7093012Z",
      "Hash": "y+Y5Znd0Nbdncy/U+dSoT+lKaVg",
      "Attributes": 8224
    },
    {
      "RelativePath": "けもフレスーパーパーティー_Data/StreamingAssets/StandaloneWindows/519737936",
      "Size": 401013,
      "LastWriting": "2021-11-16T13:33:45.2451956Z",
      "Hash": "dx+0aIyMISvB0/hAthLooXHYqQY",
      "Attributes": 32
    },
    {
      "RelativePath": "けもフレスーパーパーティー_Data/StreamingAssets/StandaloneWindows/571961823",
      "Size": 1086622,
      "LastWriting": "2021-12-06T19:38:20.3322934Z",
      "Hash": "9RNL38RwAT1RAoSezaDLVDdsU+A",
      "Attributes": 8224
    },
    {
      "RelativePath": "けもフレスーパーパーティー_Data/StreamingAssets/StandaloneWindows/58658686",
      "Size": 977329,
      "LastWriting": "2021-12-20T13:44:33.8875878Z",
      "Hash": "fhCESjiGeFiMjhiC+YYhA4h78oQ",
      "Attributes": 32
    },
    {
      "RelativePath": "けもフレスーパーパーティー_Data/StreamingAssets/StandaloneWindows/588772312",
      "Size": 937521,
      "LastWriting": "2021-12-02T08:09:04.8271826Z",
      "Hash": "saJ5GHgT0GJ3duEWNwyd6lCb2DE",
      "Attributes": 32
    },
    {
      "RelativePath": "けもフレスーパーパーティー_Data/StreamingAssets/StandaloneWindows/606253767",
      "Size": 11956,
      "LastWriting": "2021-11-29T17:48:32.26531Z",
      "Hash": "MxtGypW0q4ubUisJ/qZ+r9sAZA0",
      "Attributes": 32
    },
    {
      "RelativePath": "けもフレスーパーパーティー_Data/StreamingAssets/StandaloneWindows/619938993",
      "Size": 94868,
      "LastWriting": "2021-10-06T15:25:30.5701795Z",
      "Hash": "jAjRAgrCfwsihkD27oqygukhPnc",
      "Attributes": 8224
    },
    {
      "RelativePath": "けもフレスーパーパーティー_Data/StreamingAssets/StandaloneWindows/624912897",
      "Size": 401130,
      "LastWriting": "2021-12-22T00:33:06.1628839Z",
      "Hash": "VzKvSd7R3ArPJareeWjcjV350nA",
      "Attributes": 32
    },
    {
      "RelativePath": "けもフレスーパーパーティー_Data/StreamingAssets/StandaloneWindows/63820506",
      "Size": 7301264,
      "LastWriting": "2021-11-26T19:19:20.2269987Z",
      "Hash": "yin81OkZ38tLgXHvyt3Bo2+w+nM",
      "Attributes": 32
    },
    {
      "RelativePath": "けもフレスーパーパーティー_Data/StreamingAssets/StandaloneWindows/729038032",
      "Size": 10471,
      "LastWriting": "2021-12-22T04:33:57.5032139Z",
      "Hash": "tEpP/zymTD5aiyceeA0dyidkFdE",
      "Attributes": 32
    },
    {
      "RelativePath": "けもフレスーパーパーティー_Data/StreamingAssets/StandaloneWindows/772774864",
      "Size": 579569,
      "LastWriting": "2021-10-22T16:51:18.3992098Z",
      "Hash": "JnU85tXdV2y8jwl58M3Yim3rxvs",
      "Attributes": 32
    },
    {
      "RelativePath": "けもフレスーパーパーティー_Data/StreamingAssets/StandaloneWindows/775303960",
      "Size": 1121572,
      "LastWriting": "2021-11-05T17:20:34.8795844Z",
      "Hash": "VtxT5XJQ9KSsx0g/NoDDXmDt15s",
      "Attributes": 32
    },
    {
      "RelativePath": "けもフレスーパーパーティー_Data/StreamingAssets/StandaloneWindows/828888187",
      "Size": 81611,
      "LastWriting": "2021-10-06T15:25:30.4325427Z",
      "Hash": "FqvJ7LqsQpsGa3DwlN3tSUf8v4E",
      "Attributes": 8224
    },
    {
      "RelativePath": "けもフレスーパーパーティー_Data/StreamingAssets/StandaloneWindows/845811291",
      "Size": 103458,
      "LastWriting": "2021-12-19T08:24:05.6537423Z",
      "Hash": "iBsibijFvjfZAqpRiEATp1hDs0k",
      "Attributes": 32
    },
    {
      "RelativePath": "けもフレスーパーパーティー_Data/StreamingAssets/StandaloneWindows/859270827",
      "Size": 555176,
      "LastWriting": "2021-12-22T00:33:05.2872205Z",
      "Hash": "7cdiaobzg2E/6dBEdoUmBbUYYiw",
      "Attributes": 32
    },
    {
      "RelativePath": "けもフレスーパーパーティー_Data/StreamingAssets/StandaloneWindows/916311235",
      "Size": 11413,
      "LastWriting": "2021-11-15T07:01:35.7131577Z",
      "Hash": "vM0pF7pnJAbnEOecoN/0HBKn3N8",
      "Attributes": 32
    },
    {
      "RelativePath": "けもフレスーパーパーティー_Data/StreamingAssets/StandaloneWindows/930518642",
      "Size": 572,
      "LastWriting": "2021-12-22T04:33:56.0845833Z",
      "Hash": "kIGer//HSuA1o9bYlUEUk6pI2W4",
      "Attributes": 32
    },
    {
      "RelativePath": "けもフレスーパーパーティー_Data/StreamingAssets/StandaloneWindows/962562240",
      "Size": 140153,
      "LastWriting": "2021-12-22T00:33:04.0932814Z",
      "Hash": "/bQ3UQSHWvODL2OSHP7jhfO8Sv0",
      "Attributes": 32
    },
    {
      "RelativePath": "けもフレスーパーパーティー_Data/StreamingAssets/StandaloneWindows/97537932",
      "Size": 820415,
      "LastWriting": "2021-10-10T14:44:01.9261092Z",
      "Hash": "qbNXO1klIsAZ93StVZ047E2hTps",
      "Attributes": 32
    },
    {
      "RelativePath": "version.data",
      "Size": 24,
      "LastWriting": "2021-12-22T04:40:15.5444609Z",
      "Hash": "22Ui3Q0oNUWQmBNYWtFp4DWv+tM",
      "Attributes": 32
    }
  ]
}